ENGLANG 2981, Thu, 12:00, Wolfson 410
2020-01-16, juliusCaesar, [], [], [99567723; 76678549; 84456261; 11867772; 56666672]
2020-01-23, hamlet, [56666672], [11867772; 76678549], [99567723; 84456261]
2020-01-30, macbeth, [84456261], [56666672], [99567723; 11867772; 76678549]
2020-02-06, romeoJuliet, [11867772; 99567723; 76678549], [], [84456261; 56666672]