ENGLANG 1010, Fri, 9:00, Rankine 109
2020-01-17, againstInterpretation, [], [15834571], [39174192; 60175751; 70274916; 87880214; 00017584; 82823455; 77783356; 63457643; 34623456; 22398005; 88890034]
2020-01-24, panopticon, [77783356], [70274916; 00017584], [39174192; 60175751; 87880214; 82823455; 63457643; 34623456; 15834571; 22398005; 88890034]
2020-01-31, dialecticEnlightenment, [39174192], [87880214; 63457643; 60175751], [70274916; 00017584; 82823455; 77783356; 34623456; 15834571; 22398005; 88890034]
2020-02-07, dialogicImagination, [77783356; 63457643; 22398005; 88890034], [15834571; 39174192], [60175751; 70274916; 87880214; 00017584; 82823455; 34623456]