COMPLIT 4826, Fri, 10:00, Rankine 205
2020-01-17, houseOfSpirits, [34255578; 19823764], [], [11111111; 21291891; 51092829; 29105717; 20948692; 39174192; 60175751; 70274916; 00017584; 74858823; 82823455; 77783356; 23423189; 23348768; 63457643; 77446598; 22398005]
2020-01-24, loveTimeCholera, [34255578; 22398005], [21291891; 51092829; 74858823; 29105717], [11111111; 20948692; 39174192; 60175751; 70274916; 19823764; 00017584; 82823455; 77783356; 23423189; 23348768; 63457643; 77446598]
2020-01-31, getInTrouble, [74858823; 19823764; 39174192; 63457643; 20948692; 77783356; 60175751], [70274916], [11111111; 21291891; 51092829; 29105717; 00017584; 82823455; 23423189; 23348768; 77446598; 22398005; 34255578]
2020-02-07, labyrinths, [39174192; 51092829; 74858823; 82823455; 34255578], [21291891; 70274916; 11111111], [29105717; 20948692; 60175751; 19823764; 00017584; 77783356; 23423189; 23348768; 63457643; 77446598; 22398005]