ENGLANG 5832, Mon, 15:00, Graham Kerr 231
2020-01-13, neverLetMeGo, [], [], [39174192; 60175751; 70274916; 87880214; 00017584; 99567723; 82823455; 77783356; 76678549; 84456261; 11867772; 56666672; 63457643; 34623456; 15834571; 22398005; 88890034]
2020-01-20, unconsoled, [11867772; 00017584], [70274916], [39174192; 60175751; 87880214; 99567723; 82823455; 77783356; 76678549; 84456261; 56666672; 63457643; 34623456; 15834571; 22398005; 88890034]
2020-01-27, buriedGiant, [76678549; 77783356], [00017584; 34623456], [39174192; 60175751; 70274916; 87880214; 99567723; 82823455; 84456261; 11867772; 56666672; 63457643; 15834571; 22398005; 88890034]
2020-02-03, nocturnes, [99567723], [], [39174192; 60175751; 70274916; 87880214; 00017584; 82823455; 77783356; 76678549; 84456261; 11867772; 56666672; 63457643; 34623456; 15834571; 22398005; 88890034]