ENGLANG 0012, Mon, 09:00, Adam Smith 504
2020-01-13, escapist, [77783356], [00017584], [11111111; 21291891; 51092829; 29105717; 20948692; 39174192; 60175751; 70274916; 19823764; 87880214; 74858823; 99567723; 82823455; 23423189; 76678549; 23348768; 84456261; 11867772; 56666672; 63457643; 77446598; 34623456; 15834571; 22398005; 88890034; 34255578]
2020-01-20, mysteriesOfPittsburgh, [88890034], [51092829; 70274916], [11111111; 21291891; 29105717; 20948692; 39174192; 60175751; 19823764; 87880214; 00017584; 74858823; 99567723; 82823455; 77783356; 23423189; 76678549; 23348768; 84456261; 11867772; 56666672; 63457643; 77446598; 34623456; 15834571; 22398005; 34255578]
2020-01-27, wonderBoys, [22398005; 84456261; 23348768; 88890034; 60175751], [], [11111111; 21291891; 51092829; 29105717; 20948692; 39174192; 70274916; 19823764; 87880214; 00017584; 74858823; 99567723; 82823455; 77783356; 23423189; 76678549; 11867772; 56666672; 63457643; 77446598; 34623456; 15834571; 34255578]
2020-02-03, moonglow, [21291891; 63457643], [22398005; 70274916; 11867772; 74858823; 23423189; 39174192], [11111111; 51092829; 29105717; 20948692; 60175751; 19823764; 87880214; 00017584; 99567723; 82823455; 77783356; 76678549; 23348768; 84456261; 56666672; 77446598; 34623456; 15834571; 88890034; 34255578]