ENGLANG 1010, Mon, 12:00, St. Andrew's 300
2020-01-13, cyborgManifesto, [], [], [39174192; 60175751; 70274916; 87880214; 00017584; 82823455; 77783356; 63457643; 34623456; 15834571; 22398005; 88890034]
2020-01-20, orientalism, [], [70274916; 00017584], [39174192; 60175751; 87880214; 82823455; 77783356; 63457643; 34623456; 15834571; 22398005; 88890034]
2020-01-27, canSubalternSpeak, [34623456], [39174192], [60175751; 70274916; 87880214; 00017584; 82823455; 77783356; 63457643; 15834571; 22398005; 88890034]
2020-02-03, simulacraSimulation, [77783356; 15834571; 34623456; 00017584; 88890034; 22398005], [39174192], [60175751; 70274916; 87880214; 82823455; 63457643]